id,title,contributors,iswc,source
6,Shape of You,Edward Sheeran Christopher,T9204649558,warner sony
7,Adventure of a Lifetime,O Brien Edward John|Yorke Thomas Edward|Greenwood Colin Charles John|Selway Philip James,T0101974597,warner
8,Me Enamoré Enamore,Rayo Gibo Antonio|Ripoll Shakira Isabel Mebarak,T9214745718,universal warner
9,Je ne sais pas,Obispo Pascal Michel|Florence Lionel Jacques,T0046951705,sony
